nodes	neededTime	memory1	addTime	memory2
10	0.398418153	4	0.106379132	7
50	0.548612621	13	0.135480662	4
100	1.281902753	8	0.175603368	11
500	9.555932898	121	0.220764967	125
1000	44.810140049	485	0.248201239	492
