\relax 
\catcode`"\active
\ifx\hyper@anchor\@undefined
\global \let \oldcontentsline\contentsline
\gdef \contentsline#1#2#3#4{\oldcontentsline{#1}{#2}{#3}}
\global \let \oldnewlabel\newlabel
\gdef \newlabel#1#2{\newlabelxx{#1}#2}
\gdef \newlabelxx#1#2#3#4#5#6{\oldnewlabel{#1}{{#2}{#3}}}
\AtEndDocument{\let \contentsline\oldcontentsline
\let \newlabel\oldnewlabel}
\else
\global \let \hyper@last\relax 
\fi

\select@language{ngerman}
\@writefile{toc}{\select@language{ngerman}}
\@writefile{lof}{\select@language{ngerman}}
\@writefile{lot}{\select@language{ngerman}}
\@writefile{toc}{\contentsline {section}{\numberline {1}Aufgabenbeschreibung}{6}{section.1}}
\@writefile{toc}{\contentsline {subsection}{\numberline {1.1}Motivation}{6}{subsection.1.1}}
\@writefile{toc}{\contentsline {subsection}{\numberline {1.2}Ziel der Ausarbeitung}{6}{subsection.1.2}}
\@writefile{toc}{\contentsline {section}{\numberline {2}Begrifflichkeiten}{7}{section.2}}
\@writefile{toc}{\contentsline {subsection}{\numberline {2.1}Polyglot Persistance}{7}{subsection.2.1}}
\@writefile{toc}{\contentsline {section}{\numberline {3}Verwendete Framworks}{8}{section.3}}
\@writefile{toc}{\contentsline {subsection}{\numberline {3.1}Java}{8}{subsection.3.1}}
\@writefile{toc}{\contentsline {subsection}{\numberline {3.2}Neo4J}{8}{subsection.3.2}}
\@writefile{toc}{\contentsline {subsection}{\numberline {3.3}MySQL}{8}{subsection.3.3}}
\@writefile{toc}{\contentsline {subsection}{\numberline {3.4}Hibernate}{8}{subsection.3.4}}
\@writefile{toc}{\contentsline {subsection}{\numberline {3.5}HSQL DB}{9}{subsection.3.5}}
\@writefile{toc}{\contentsline {subsection}{\numberline {3.6}Git}{9}{subsection.3.6}}
\@writefile{toc}{\contentsline {section}{\numberline {4}Testumgebungen}{10}{section.4}}
\@writefile{toc}{\contentsline {subsection}{\numberline {4.1}Testmaschine 1}{10}{subsection.4.1}}
\@writefile{toc}{\contentsline {subsection}{\numberline {4.2}Testmaschine 2}{10}{subsection.4.2}}
\@writefile{toc}{\contentsline {section}{\numberline {5}Umsetzung der OpengeDb in Neo4j}{11}{section.5}}
\@writefile{toc}{\contentsline {subsection}{\numberline {5.1}Allgemeines}{11}{subsection.5.1}}
\@writefile{toc}{\contentsline {subsection}{\numberline {5.2}Aufbau der Datenbank}{11}{subsection.5.2}}
\@writefile{lof}{\contentsline {figure}{\numberline {1}{\ignorespaces ER-Modell der OpengeoDb\relax }}{11}{figure.caption.2}}
\@writefile{toc}{\contentsline {subsection}{\numberline {5.3}Notwendige Modifikationen am SQL Skript}{12}{subsection.5.3}}
\@writefile{toc}{\contentsline {section}{\numberline {6}Vor\IeC {\"u}berlegungen zu den Performancetests}{13}{section.6}}
\@writefile{toc}{\contentsline {subsection}{\numberline {6.1}Graphen Strukturen}{14}{subsection.6.1}}
\@writefile{toc}{\contentsline {subsubsection}{\numberline {6.1.1}Baumf\IeC {\"o}rmige Graphendatenbanken}{14}{subsubsection.6.1.1}}
\@writefile{toc}{\contentsline {subsubsection}{\numberline {6.1.2}Graphendatenbank mit vollvermaschten Zweigen}{14}{subsubsection.6.1.2}}
\@writefile{toc}{\contentsline {subsection}{\numberline {6.2}Persistierungsstrategien f\IeC {\"u}r Daten}{15}{subsection.6.2}}
\@writefile{toc}{\contentsline {subsubsection}{\numberline {6.2.1}Daten als Knoten(Propertynodes)}{15}{subsubsection.6.2.1}}
\@writefile{lol}{\contentsline {lstlisting}{\numberline {1}Erstellen der Ergebnisliste zu einem Stadtknoten}{15}{lstlisting.1}}
\@writefile{toc}{\contentsline {subsubsection}{\numberline {6.2.2}Daten als Node Attribute (Nodeattributes)}{16}{subsubsection.6.2.2}}
\@writefile{lol}{\contentsline {lstlisting}{\numberline {2}Auslesen aller g\IeC {\"u}ltigen Kombinationen aus Postleitzahl und Namen.}{16}{lstlisting.2}}
\@writefile{toc}{\contentsline {subsection}{\numberline {6.3}Verfolgte Ans\IeC {\"a}tze}{17}{subsection.6.3}}
\@writefile{toc}{\contentsline {section}{\numberline {7}Implemetierung der Performancetests}{18}{section.7}}
\@writefile{toc}{\contentsline {subsection}{\numberline {7.1}Trennung der Baumstruktur von der Datenhaltungsstrategie}{18}{subsection.7.1}}
\@writefile{lol}{\contentsline {lstlisting}{\numberline {3}Erstellung einer Graphenstruktur mit vollvermaschten Zweigen}{18}{lstlisting.3}}
\@writefile{lol}{\contentsline {lstlisting}{\numberline {4}Konstruktoraufrufe mit und ohne mapping.}{19}{lstlisting.4}}
\@writefile{toc}{\contentsline {subsection}{\numberline {7.2}Implementierte Abfragetypen}{19}{subsection.7.2}}
\@writefile{toc}{\contentsline {subsubsection}{\numberline {7.2.1}SQL Abfrage \IeC {\"u}ber JDBC}{19}{subsubsection.7.2.1}}
\@writefile{lol}{\contentsline {lstlisting}{\numberline {5}Gegebene SQL Abfrage.}{19}{lstlisting.5}}
\@writefile{toc}{\contentsline {subsubsection}{\numberline {7.2.2}HQL Abfrage}{20}{subsubsection.7.2.2}}
\@writefile{lol}{\contentsline {lstlisting}{\numberline {6}HQL Abfrage - analog zur SQL Abfrage.}{20}{lstlisting.6}}
\@writefile{toc}{\contentsline {subsubsection}{\numberline {7.2.3}Erl\IeC {\"a}uterungen Basic API}{20}{subsubsection.7.2.3}}
\@writefile{lol}{\contentsline {lstlisting}{\numberline {7}Implementierung der Basic Api Abfragen.}{21}{lstlisting.7}}
\@writefile{toc}{\contentsline {subsubsection}{\numberline {7.2.4}Erl\IeC {\"a}uterung Traversal API}{21}{subsubsection.7.2.4}}
\@writefile{lol}{\contentsline {lstlisting}{\numberline {8}Implementierung der Traversal Api Abfragen.}{21}{lstlisting.8}}
\@writefile{toc}{\contentsline {subsubsection}{\numberline {7.2.5}Erl\IeC {\"a}uterung Cypher API}{22}{subsubsection.7.2.5}}
\@writefile{lol}{\contentsline {lstlisting}{\numberline {9}Implementierung der Cypher Abfragen.}{22}{lstlisting.9}}
\@writefile{toc}{\contentsline {subsection}{\numberline {7.3}Performancetests Unit Tests}{23}{subsection.7.3}}
\@writefile{lof}{\contentsline {figure}{\numberline {2}{\ignorespaces Links: Vollvermaschte Zweige mit Attributenodes. Rechts: Baumf\IeC {\"o}rmiger Graph mit Propertynodes.\relax }}{23}{figure.caption.3}}
\@writefile{lof}{\contentsline {figure}{\numberline {3}{\ignorespaces UML-Diagramm ConnectionFactory\relax }}{23}{figure.caption.4}}
\@writefile{lol}{\contentsline {lstlisting}{\numberline {10}Mapping vom Klassenkombination auf GDB Pfad.}{24}{lstlisting.10}}
\@writefile{toc}{\contentsline {section}{\numberline {8}Performancetests}{26}{section.8}}
\@writefile{toc}{\contentsline {subsection}{\numberline {8.1}Erstellung einer Graphen-Datenbanke}{26}{subsection.8.1}}
\@writefile{lof}{\contentsline {figure}{\numberline {4}{\ignorespaces Erstellungszeit neuer Graphendatenbanken mit x Knoten\relax }}{26}{figure.caption.5}}
\@writefile{toc}{\contentsline {subsection}{\numberline {8.2}Einf\IeC {\"u}gen eines neuen Knotens}{27}{subsection.8.2}}
\@writefile{lof}{\contentsline {figure}{\numberline {5}{\ignorespaces Einf\IeC {\"u}gen eines zus\IeC {\"a}tzlichen Knotens in einen Graphen mit x bestehenden Knoten\relax }}{27}{figure.caption.6}}
\@writefile{toc}{\contentsline {subsection}{\numberline {8.3}Abfrage Performancetest Ergebnisse}{28}{subsection.8.3}}
\@writefile{toc}{\contentsline {subsubsection}{\numberline {8.3.1}SQL Query \IeC {\"u}ber JDBC vs. HQL Query \IeC {\"u}ber Hibernate}{28}{subsubsection.8.3.1}}
\@writefile{lof}{\contentsline {figure}{\numberline {6}{\ignorespaces Ausf\IeC {\"u}hrungsdauer der SQL und HQL Abfragen auf die Relationale Datenbanken\relax }}{28}{figure.caption.7}}
\@writefile{toc}{\contentsline {subsubsection}{\numberline {8.3.2}Baumartige Graphen}{29}{subsubsection.8.3.2}}
\@writefile{lof}{\contentsline {figure}{\numberline {7}{\ignorespaces Basic API und Traversal Abfragen gegen baumf\IeC {\"o}rmige Graphen mit Nodeattributes\relax }}{29}{figure.caption.8}}
\@writefile{lof}{\contentsline {figure}{\numberline {8}{\ignorespaces Basic API und Traversal Abfragen gegen baumf\IeC {\"o}rmige Graphen mit Propertynodes\relax }}{29}{figure.caption.9}}
\@writefile{lof}{\contentsline {figure}{\numberline {9}{\ignorespaces Cypher Abfragen gegen baumf\IeC {\"o}rmoge Graphen\relax }}{30}{figure.caption.10}}
\@writefile{toc}{\contentsline {subsubsection}{\numberline {8.3.3}Vollvermaschte Zweige}{31}{subsubsection.8.3.3}}
\@writefile{lof}{\contentsline {figure}{\numberline {10}{\ignorespaces Vollvermaschter Graph, Zweige mit Nodeattributes\relax }}{31}{figure.caption.11}}
\@writefile{lof}{\contentsline {figure}{\numberline {11}{\ignorespaces Vollvermaschter Graph, Zweige mit Propertynodes\relax }}{31}{figure.caption.12}}
\@writefile{toc}{\contentsline {subsubsection}{\numberline {8.3.4}Auswertung}{32}{subsubsection.8.3.4}}
\@writefile{toc}{\contentsline {subsection}{\numberline {8.4}Fazit}{33}{subsection.8.4}}
\@writefile{toc}{\contentsline {section}{\numberline {9}Prototyp}{34}{section.9}}
\@writefile{toc}{\contentsline {subsection}{\numberline {9.1}Datenmodell}{34}{subsection.9.1}}
\@writefile{toc}{\contentsline {subsection}{\numberline {9.2}Anforderungen an den Prototypen}{34}{subsection.9.2}}
\@writefile{toc}{\contentsline {subsubsection}{\numberline {9.2.1}Abgrenzungen der Anforderungen}{34}{subsubsection.9.2.1}}
\@writefile{toc}{\contentsline {subsubsection}{\numberline {9.2.2}Vor\IeC {\"u}berlegungen Graphendatenbankoperationen.}{35}{subsubsection.9.2.2}}
\@writefile{toc}{\contentsline {subsection}{\numberline {9.3}Erl\IeC {\"a}uterungen}{35}{subsection.9.3}}
\@writefile{toc}{\contentsline {subsection}{\numberline {9.4}Begrifflichkeitsabgrenzung}{35}{subsection.9.4}}
\@writefile{toc}{\contentsline {subsection}{\numberline {9.5}Fluent DAOs mit Hilfe von Dynamic Proxies}{36}{subsection.9.5}}
\@writefile{lof}{\contentsline {figure}{\numberline {12}{\ignorespaces Klassendiagramm Fluent Interfaces / Dynamic Proxy\relax }}{36}{figure.caption.13}}
\@writefile{lol}{\contentsline {lstlisting}{\numberline {11}Beispiel Interface f\IeC {\"u}r eine fiktive Benutzer Entit\IeC {\"a}t}{36}{lstlisting.11}}
\@writefile{lof}{\contentsline {figure}{\numberline {13}{\ignorespaces Sequenzdiagramm Fluent Interfaces / Dynamic Proxy\relax }}{37}{figure.caption.14}}
\@writefile{lol}{\contentsline {lstlisting}{\numberline {12}Beispielverwendung eines FluentInterface DAO}{37}{lstlisting.12}}
\@writefile{toc}{\contentsline {subsection}{\numberline {9.6}Codegeneration/Query Builder}{39}{subsection.9.6}}
\@writefile{lol}{\contentsline {lstlisting}{\numberline {13}Beispielhafte Abfrage mit Hilfe eines QueryBuilders}{39}{lstlisting.13}}
\@writefile{lol}{\contentsline {lstlisting}{\numberline {14}Beispielhafter Aufbau einer Query Klasse}{40}{lstlisting.14}}
\@writefile{lof}{\contentsline {figure}{\numberline {14}{\ignorespaces Sequenzdiagramm QueryBuilder\relax }}{41}{figure.caption.15}}
\@writefile{toc}{\contentsline {subsection}{\numberline {9.7}Gegen\IeC {\"u}berstellung, Schlussfolgerung}{42}{subsection.9.7}}
\@writefile{lol}{\contentsline {lstlisting}{\numberline {15}Beispielverwendung eines FluentInterface DAO}{42}{lstlisting.15}}
\@writefile{toc}{\contentsline {section}{\numberline {10}Prototyp Implementierung}{43}{section.10}}
\@writefile{toc}{\contentsline {subsection}{\numberline {10.1}Abgrenzung}{43}{subsection.10.1}}
\@writefile{toc}{\contentsline {subsection}{\numberline {10.2}Transaktionsmanagement}{43}{subsection.10.2}}
\@writefile{toc}{\contentsline {subsection}{\numberline {10.3}Vor\IeC {\"u}berlegungen zu Duplikat-Beziehungen}{43}{subsection.10.3}}
\@writefile{toc}{\contentsline {subsection}{\numberline {10.4}Operationen auf die Graphendatenbank}{45}{subsection.10.4}}
\@writefile{lol}{\contentsline {lstlisting}{\numberline {16}Hinzuf\IeC {\"u}gen eines Duplicate Knotens.}{45}{lstlisting.16}}
\@writefile{lol}{\contentsline {lstlisting}{\numberline {17}L\IeC {\"o}schen eines Knotens.}{46}{lstlisting.17}}
\@writefile{lol}{\contentsline {lstlisting}{\numberline {18}Implementierung der safeDelete(...) Helfermethode.}{46}{lstlisting.18}}
\@writefile{lol}{\contentsline {lstlisting}{\numberline {19}Kindknoten zu Elternknoten verbinden (L\IeC {\"o}schen eines normalen Knotens).}{47}{lstlisting.19}}
\@writefile{lol}{\contentsline {lstlisting}{\numberline {20}Finden/Verbinden des neuen Rootknotens mit den Kindknoten.}{47}{lstlisting.20}}
\@writefile{toc}{\contentsline {subsection}{\numberline {10.5}Indexierung der Graphendatenbank}{47}{subsection.10.5}}
\@writefile{lol}{\contentsline {lstlisting}{\numberline {21}Einen Knoten \IeC {\"u}ber Lucene laden\tmspace  +\thinmuskip {.1667em} oder den Knoten neu erstellen und indexieren.}{48}{lstlisting.21}}
\@writefile{toc}{\contentsline {subsection}{\numberline {10.6}Mapping der DAO Methoden}{48}{subsection.10.6}}
\@writefile{lol}{\contentsline {lstlisting}{\numberline {22}Mapping Methode aus der DaoMethodRegistry und Implementierung des InvocationHandlers}{48}{lstlisting.22}}
\@writefile{toc}{\contentsline {subsection}{\numberline {10.7}Klassen-/Methodenbeschreibung}{49}{subsection.10.7}}
\@writefile{toc}{\contentsline {subsubsection}{\numberline {10.7.1}Klassen}{49}{subsubsection.10.7.1}}
\@writefile{toc}{\contentsline {paragraph}{DAOFactory}{49}{section*.16}}
\@writefile{toc}{\contentsline {paragraph}{DynamicDaoProxy}{49}{section*.17}}
\@writefile{toc}{\contentsline {paragraph}{DaoMethodRegistry}{49}{section*.18}}
\@writefile{toc}{\contentsline {paragraph}{IssueBaseFluentInterface}{49}{section*.19}}
\@writefile{toc}{\contentsline {paragraph}{AbstractDatabaseQueryExecuter}{49}{section*.20}}
\@writefile{toc}{\contentsline {paragraph}{AbstractJdbcExecuter}{49}{section*.21}}
\@writefile{toc}{\contentsline {paragraph}{AbstractGraphExecuter}{49}{section*.22}}
\@writefile{toc}{\contentsline {subsubsection}{\numberline {10.7.2}Methoden}{49}{subsubsection.10.7.2}}
\@writefile{toc}{\contentsline {paragraph}{Create}{50}{section*.23}}
\@writefile{toc}{\contentsline {paragraph}{Delete}{50}{section*.24}}
\@writefile{toc}{\contentsline {paragraph}{GetAll}{50}{section*.25}}
\@writefile{toc}{\contentsline {paragraph}{GetById}{50}{section*.26}}
\@writefile{toc}{\contentsline {paragraph}{SetAsDuplicate}{50}{section*.27}}
\@writefile{toc}{\contentsline {paragraph}{GetDuplicates}{50}{section*.28}}
\@writefile{lof}{\contentsline {figure}{\numberline {15}{\ignorespaces UML-Diagramm Prototyp\relax }}{51}{figure.caption.29}}
\@writefile{toc}{\contentsline {subsection}{\numberline {10.8}Testf\IeC {\"a}lle}{52}{subsection.10.8}}
\@writefile{toc}{\contentsline {subsection}{\numberline {10.9}Prototyp Bewertung}{52}{subsection.10.9}}
\@writefile{toc}{\contentsline {section}{\numberline {11}Fazit/Ausblick}{53}{section.11}}
\@writefile{toc}{\contentsline {subsection}{\numberline {11.1}Allgemein}{53}{subsection.11.1}}
\@writefile{toc}{\contentsline {subsection}{\numberline {11.2}Prototyp}{53}{subsection.11.2}}
\bibstyle{unsrt}
\bibcite{hib}{1}
\bibcite{OpengeoDb}{2}
\bibcite{OpengeoDb}{3}
\bibcite{neo4j}{4}
\bibcite{neo4j}{5}
\bibcite{hsqldb}{6}
\bibcite{neo4jman}{7}
\@writefile{toc}{\contentsline {section}{Literaturverzeichnis}{54}{subsection.11.2}}
\@writefile{toc}{\contentsline {section}{Anhang}{55}{section*.30}}
\@writefile{toc}{\contentsline {section}{\numberline {A}Ausf\IeC {\"u}hren der Performancetests}{55}{appendix.A}}
\@writefile{toc}{\contentsline {section}{\numberline {B}Erstellung der produktiven Graphendatenbanken aus der OpengeoDb heraus}{55}{appendix.B}}
\@writefile{toc}{\contentsline {section}{\numberline {C}Ausf\IeC {\"u}hrung Unit Tests}{55}{appendix.C}}
\global\@altsecnumformattrue
